﻿<p>
Dear Supplier,
<br/>
<br/>
<br/>
Please find attached Payment Advice with payment details
<br/>
<br/>
<br/>
<br/>
<u><i><b>Note: This is system Generated email do not reply</b></i></u>
<br/>
<br/>
<br/>
<br/>
<br/>
<br/>
<br/>
<br/>
Thanks & Regards
<br/>
<br/>
<br/>
<br/>
<b>{0}</b>
<br/> 
Office No. 16, 3rd Floor, Primrose - The Mall
<br/>
Survey No. 76/3, Baner Road, Pune - 411 045
<br/>
Website: www.impact-logistics.in
<br/>
Telephone:  +91 (20) 40032121 
</p>

